lab03/simulation/qsim/lab03.msim.vcd
$comment
	File created using the following command:
		vcd file lab03.msim.vcd -direction
$end
$date
	Fri Sep 16 18:47:02 2022
$end
$version
	ModelSim Version 10.1d
$end
$timescale
	1ps
$end
$scope module lab03_vlg_vec_tst $end
$var reg 1 ! Clock $end
$var reg 1 " Reset $end
$var wire 1 # L1 $end
$var wire 1 $ L2 $end
$var wire 1 % L3 $end
$var wire 1 & L4 $end
$var wire 1 ' M1 $end
$var wire 1 ( M2 $end
$var wire 1 ) M3 $end
$var wire 1 * M4 $end
$var wire 1 + sampler $end
$scope module i1 $end
$var wire 1 , gnd $end
$var wire 1 - vcc $end
$var wire 1 . unknown $end
$var wire 1 / Clock~dataout $end
$var wire 1 0 Reset~dataout $end
$var wire 1 1 inst~dataout $end
$var wire 1 2 inst1~dataout $end
$var wire 1 3 inst~3_dataout $end
$var wire 1 4 inst5~dataout $end
$var wire 1 5 inst2~dataout $end
$var wire 1 6 inst3~dataout $end
$var wire 1 7 inst6~dataout $end
$var wire 1 8 inst7~dataout $end
$upscope $end
$upscope $end
$enddefinitions $end
#0
$dumpvars
0!
0"
0#
0$
0%
0&
1'
1(
1)
1*
x+
0,
1-
x.
0/
00
01
02
13
14
05
06
17
18
$end
#25000
1!
1/
0+
#50000
0!
0/
1+
#60000
1"
10
0+
#75000
1!
1/
1+
11
03
1&
0*
#100000
0!
0/
0+
#125000
1!
1/
1+
04
12
01
13
0)
1%
0&
1*
#150000
0!
0/
0+
#175000
1!
1/
1+
11
03
1&
0*
#200000
0!
0/
0+
#225000
1!
1/
1+
07
15
14
02
01
13
0(
1$
1)
0%
0&
1*
#250000
0!
0/
0+
#275000
1!
1/
1+
11
03
1&
0*
#300000
0!
0/
0+
#325000
1!
1/
1+
04
12
01
13
0)
1%
0&
1*
#350000
0!
0/
0+
#375000
1!
1/
1+
11
03
1&
0*
#400000
0!
0/
0+
#425000
1!
1/
1+
08
17
16
05
14
02
01
13
0'
1(
1#
0$
1)
0%
0&
1*
#450000
0!
0/
0+
#475000
1!
1/
1+
11
03
1&
0*
#500000
0!
0/
0+
#525000
1!
1/
1+
04
12
01
13
0)
1%
0&
1*
#550000
0!
0/
0+
#575000
1!
1/
1+
11
03
1&
0*
#600000
0!
0/
0+
#625000
1!
1/
1+
07
15
14
02
01
13
0(
1$
1)
0%
0&
1*
#650000
0!
0/
0+
#675000
1!
1/
1+
11
03
1&
0*
#700000
0!
0/
0+
#725000
1!
1/
1+
04
12
01
13
0)
1%
0&
1*
#750000
0!
0/
0+
#775000
1!
1/
1+
11
03
1&
0*
#800000
0!
0/
0+
#825000
1!
1/
1+
18
17
06
05
14
02
01
13
1'
1(
0#
0$
1)
0%
0&
1*
#850000
0!
0/
0+
#875000
1!
1/
1+
11
03
1&
0*
#900000
0!
0/
0+
#925000
1!
1/
1+
04
12
01
13
0)
1%
0&
1*
#950000
0!
0/
0+
#975000
1!
1/
1+
11
03
1&
0*
